{
  "id": "#base-schema.json#",
  "$schema": "http://json-schema.org/draft-04/schema#",
  "title": "Dep file schema",
  "type": "object",
  "additionalProperties": true,
  "required": [
    "service",
    "resources",
    "dependencies",
    "ops"
  ],
  "properties": {
    "service": {
      "id": "#dependency-service-schema.json#",
      "$schema": "http://json-schema.org/draft-04/schema#",
      "title": "Schema for service section",
      "description": "Service part of dep file",
      "type": "object",
      "additionalProperties": false,
      "required": [
        "profile",
        "name",
        "role",
        "apis",
        "deployment"
      ],
      "properties": {
        "profile": {
          "type": "string"
        },
        "name": {
          "type": "string"
        },
        "role": {
          "type": "string"
        },
        "apis": {
          "type": "array"
        },
        "deployment": {
          "type": "object"
        }
      }
    },
    "resources": {
      "id": "https://s3-eu-west-1.amazonaws.com/dima-devops-test/json-schemas/resource-schema.json#",
      "$schema": "http://json-schema.org/draft-04/schema#",
      "title": "Schema for resource section",
      "description": "Resource part of dep file",
      "type": "object",
      "additionalProperties": true,
      "required": [
        "cpu",
        "mem"
      ],
      "properties": {
        "cpu": {
          "type": "number"
        },
        "mem": {
          "type": "string",
          "pattern": "^[0-9]+M$|Mi$|G$"
        }
      }
    }
  }
}
